…
``` r
unique_where <- function(df, condition, var) {
  df |> 
    filter({{ condition }}) |> 
    distinct({{ var }}) |> 
    arrange({{ var }})
}

# Find all the destinations in December
flights |> unique_where(month == 12, dest)
```

    # A tibble: 96 × 1
       dest 
       <chr>
     1 ABQ  
     2 ALB  
     3 ATL  
     4 AUS  
     5 AVL  
     6 BDL  
     7 BGR  
     8 BHM  
     9 BNA  
    10 BOS  
    # ℹ 86 more rows
``` r
count_missing <- function(df, group_vars, x_var) {
  df |> 
    group_by(pick({{ group_vars }})) |> 
    summarize(
      n_miss = sum(is.na({{ x_var }})),
      .groups = "drop"
    )
}

flights |> 
  count_missing(c(year, month, day), dep_time)
```

    # A tibble: 365 × 4
        year month   day n_miss
       <int> <int> <int>  <int>
     1  2013     1     1      4
     2  2013     1     2      8
     3  2013     1     3     10
     4  2013     1     4      6
     5  2013     1     5      3
     6  2013     1     6      1
     7  2013     1     7      3
     8  2013     1     8      4
     9  2013     1     9      5
    10  2013     1    10      3
    # ℹ 355 more rows
…
diamonds |> count_wide(c(clarity, color), cut)
```

    # A tibble: 56 × 7
       clarity color  Fair  Good `Very Good` Premium Ideal
       <ord>   <ord> <int> <int>       <int>   <int> <int>
     1 I1      D         4     8           5      12    13
     2 I1      E         9    23          22      30    18
     3 I1      F        35    19          13      34    42
     4 I1      G        53    19          16      46    16
     5 I1      H        52    14          12      46    38
     6 I1      I        34     9           8      24    17
     7 I1      J        23     4           8      13     2
     8 SI2     D        56   223         314     421   356
     9 SI2     E        78   202         445     519   469
    10 SI2     F        89   201         343     523   453
    # ℹ 46 more rows
…
